<?xml version="1.0" encoding="utf-8"?>
<!DOCTYPE svg PUBLIC "-//W3C//DTD SVG 1.1//EN"
	"http://www.w3.org/Graphics/SVG/1.1/DTD/svg11.dtd">
<svg version="1.1" id="Layer_1" xmlns="http://www.w3.org/2000/svg" xmlns:xlink="http://www.w3.org/1999/xlink" x="0px" y="0px"
	 width="16px" height="16px" viewBox="0 0 16 16" enable-background="new 0 0 16 16" xml:space="preserve">
<path fill="#1D1D1B" d="M2.301,9.203H5.02l1.882-3.869l1.987,3.869h2.719L6.902,0L2.301,9.203z"/>
<path fill-rule="evenodd" clip-rule="evenodd" fill="#1D1D1C" d="M6.693,9.203h2.091l1.464,2.823l1.36-2.823h2.091L10.248,16
	L6.693,9.203z"/>
<path fill-rule="evenodd" clip-rule="evenodd" fill="none" d="M2.301,0h11.398v16H2.301V0z"/>
</svg>
